%YAML 1.1
%TAG !u! tag:unity3d.com,2011:
--- !u!114 &11400000
MonoBehaviour:
  m_ObjectHideFlags: 0
  m_PrefabParentObject: {fileID: 0}
  m_PrefabInternal: {fileID: 0}
  m_GameObject: {fileID: 0}
  m_Enabled: 1
  m_EditorHideFlags: 0
  m_Script: {fileID: 11500000, guid: bc499824a4c59764ca509f7fcf8394aa, type: 3}
  m_Name: Main Menu
  m_EditorClassIdentifier: 
  _name: Main Menu
  backgroundMusicData:
  - _baseWeight: 1
    _bgm: Audio/BGM/Main Menu/Did You See That Shadow
